// Jest Snapshot v1, https://goo.gl/fbAQLP

exports[`should render correctly 1`] = `
<div
  className="col-sm-12 user"
>
  <img
    alt="mojombo"
    src="https://avatars0.githubusercontent.com/u/1?v=4"
  />
  <h4>
    mojombo
  </h4>
  <a
    aria-current={null}
    className={undefined}
    href="/users/mojombo"
    onClick={[Function]}
    style={undefined}
  >
    Details
  </a>
</div>
`;
