// Jest Snapshot v1, https://goo.gl/fbAQLP

exports[`should render correctly 1`] = `
<nav
  className="navigation"
>
  <button
    className="btn"
    onClick={[Function]}
    type="button"
  >
    Go Back
  </button>
</nav>
`;
